2 Day Two | Workshop: Data Visualization & Statistics in R
…
## Warning: There were 47 warnings in `mutate()`.
## The first warning was:
## ℹ In argument: `fit = map(...)`.
## ℹ In group 1: `genotype = "BEA_16"`.
## Caused by warning in `log()`:
## ! NaNs produced
## ℹ Run `dplyr::last_dplyr_warnings()` to see the 46 remaining warnings.

## # A tibble: 24 × 9
## # Groups:   genotype [24]
##    genotype data     fit    term  curve     estimate std.error statistic p.value
##    <chr>    <list>   <list> <chr> <chr>        <dbl>     <dbl>     <dbl>   <dbl>
##  1 MU       <tibble> <drc>  LT50  (Interce…     36.5     0.234     156.        0
##  2 CH       <tibble> <drc>  LT50  (Interce…     36.3     0.144     253.        0
##  3 GU       <tibble> <drc>  LT50  (Interce…     35.8     0.497      72.1       0
##  4 SK       <tibble> <drc>  LT50  (Interce…     35.6     0.131     272.        0
##  5 GH       <tibble> <drc>  LT50  (Interce…     35.6     0.149     239.        0
##  6 BEA_36   <tibble> <drc>  LT50  (Interce…     35.4     0.175     203.        0
##  7 VTECK_9  <tibble> <drc>  LT50  (Interce…     35.3     0.151     235.        0
##  8 VTECK_2  <tibble> <drc>  LT50  (Interce…     35.3     0.142     249.        0
##  9 RFM_48   <tibble> <drc>  LT50  (Interce…     35.2     0.196     179.        0
## 10 VTECK_14 <tibble> <drc>  LT50  (Interce…     35.2     0.136     258.        0
## # ℹ 14 more rows
