1 Day One | Workshop: Data Visualization & Statistics in R
…
## Rows: 25 Columns: 10
## ── Column specification ────────────────────────────────────────────────────────
## Delimiter: "\t"
## chr (5): Stock, Locale, StateCountry, Region, Pop
## dbl (5): Year, Lat, Long, Adult_LT50, Embryo_LT50
## 
## ℹ Use `spec()` to retrieve the full column specification for this data.
## ℹ Specify the column types or set `show_col_types = FALSE` to quiet this message.

# Inspect data -----------------------------------------------------------------

# Print it out
dat

## # A tibble: 25 × 10
##    Stock    Locale  StateCountry  Year   Lat  Long Adult_LT50 Embryo_LT50 Region
##    <chr>    <chr>   <chr>        <dbl> <dbl> <dbl>      <dbl>       <dbl> <chr> 
##  1 VTECK_2  East_C… Vermont_USA   2011  44.4 -72.4       39.6        35.2 Tempe…
##  2 VTECK_4  East_C… Vermont_USA   2011  44.4 -72.4       40.0        35.0 Tempe…
##  3 VTECK_5  East_C… Vermont_USA   2011  44.4 -72.4       39.6        34.8 Tempe…
##  4 VTECK_8  East_C… Vermont_USA   2011  44.4 -72.4       39.5        34.8 Tempe…
##  5 VTECK_9  East_C… Vermont_USA   2011  44.4 -72.4       39.9        35.3 Tempe…
##  6 VTECK_10 East_C… Vermont_USA   2011  44.4 -72.4       39.9        34.2 Tempe…
##  7 VTECK_12 East_C… Vermont_USA   2011  44.4 -72.4       40.0        34.2 Tempe…
##  8 VTECK_14 East_C… Vermont_USA   2011  44.4 -72.4       40          35.0 Tempe…
##  9 BEA_5    Beasle… Indiana_USA   2011  39.8 -86.5       39.8        35.1 Tempe…
## 10 BEA_16   Beasle… Indiana_USA   2011  39.8 -86.5       40.0        35.1 Tempe…
## # ℹ 15 more rows
## # ℹ 1 more variable: Pop <chr>
…
# select
dat |> 
  select(Stock, Locale, Lat, Long, Embryo_LT50)

## # A tibble: 25 × 5
##    Stock    Locale            Lat  Long Embryo_LT50
##    <chr>    <chr>           <dbl> <dbl>       <dbl>
##  1 VTECK_2  East_Calais      44.4 -72.4        35.2
##  2 VTECK_4  East_Calais      44.4 -72.4        35.0
##  3 VTECK_5  East_Calais      44.4 -72.4        34.8
##  4 VTECK_8  East_Calais      44.4 -72.4        34.8
##  5 VTECK_9  East_Calais      44.4 -72.4        35.3
##  6 VTECK_10 East_Calais      44.4 -72.4        34.2
##  7 VTECK_12 East_Calais      44.4 -72.4        34.2
##  8 VTECK_14 East_Calais      44.4 -72.4        35.0
##  9 BEA_5    Beasley_Orchard  39.8 -86.5        35.1
## 10 BEA_16   Beasley_Orchard  39.8 -86.5        35.1
## # ℹ 15 more rows
…
